INDEX VERSION 1.131+E:\Forms\.metadata\.plugins\org.eclipse.jdt.core
2456721954.index
2949893365.index
1144884010.index
2826547681.index
84094433.index
769529556.index
2356247092.index
4293535472.index
3689947151.index
3418781814.index
1126522883.index
2882959326.index
4012883394.index
3565463143.index
2299323912.index
153371215.index
1292100874.index
448052858.index
3737742042.index
3315610711.index
3024869249.index
268664506.index
541930064.index
3746263576.index
1401208169.index
4032339266.index
3206957627.index
1865797976.index
94434726.index
554242831.index
1165259753.index
2797999599.index
2702929956.index
1942839491.index
31773336.index
3535171554.index
1406521636.index
3226951028.index
3861485548.index
1342596497.index
1983823881.index
422968356.index
3938273306.index
423697688.index
3603927782.index
3685009128.index
2848503408.index
3982276198.index
2881911373.index
3606226304.index
283002673.index
2988081402.index
754284044.index
145478192.index
2769497355.index
1332538577.index
1226705916.index
4182987035.index
1601037439.index
176219980.index
1888470206.index
3695476501.index
2162753369.index
1220248974.index
548920657.index
1057189122.index
3857230884.index
1067104041.index
4235007988.index
2384316733.index
4000232754.index
1216893380.index
3706833347.index
